{
	"id": "8e73b144-40ad-4268-b153-719000226dff",
	"name": "Gate_Controller_Prod",
	"values": [
		{
			"key": "baseUrl",
			"value": "http://gate.local/",
			"enabled": true
		}
	],
	"_postman_variable_scope": "environment",
	"_postman_exported_at": "2021-01-15T21:41:47.519Z",
	"_postman_exported_using": "Postman/7.36.1"
}